
Hello tm1743!
Tesztelem a "leker" programot...
Sikeres azonosítás:
   Tóth Miklós Tibor,1MI,IMSC2,L3-IMSC  <tothmiklostibor@gmail.com> FLGIIG
   17. feladat

Korábbi eredményei:
   1: 8/8   11: 3/3   13: 3/3   3: 5/5
   5: 5/5   7: 3/3   9: 3/3

Ezt a feladatot még nem tudom
